%YAML 1.1
%TAG !u! tag:unity3d.com,2011:
--- !u!95 &4931911264298097684
Animator:
  serializedVersion: 3
  m_ObjectHideFlags: 0
  m_CorrespondingSourceObject: {fileID: 0}
  m_PrefabInstance: {fileID: 0}
  m_PrefabAsset: {fileID: 0}
  m_GameObject: {fileID: 4234936194508403533}
  m_Enabled: 1
  m_Avatar: {fileID: 0}
  m_Controller: {fileID: 9100000, guid: 7c0cfc33d7031d7488611f61086ef884, type: 2}
  m_CullingMode: 0
  m_UpdateMode: 0
  m_ApplyRootMotion: 0
  m_LinearVelocityBlending: 0
  m_WarningMessage: 
  m_HasTransformHierarchy: 1
  m_AllowConstantClipSamplingOptimization: 1
  m_KeepAnimatorControllerStateOnDisable: 0
--- !u!1001 &5324496238875339332
PrefabInstance:
  m_ObjectHideFlags: 0
  serializedVersion: 2
  m_Modification:
    m_TransformParent: {fileID: 0}
    m_Modifications:
    - target: {fileID: -4216859302048453862, guid: 50c3514176b219e46a307bd2a6644492,
        type: 3}
      propertyPath: m_LocalPosition.x
      value: -0.436
      objectReference: {fileID: 0}
    - target: {fileID: -4216859302048453862, guid: 50c3514176b219e46a307bd2a6644492,
        type: 3}
      propertyPath: m_LocalPosition.y
      value: -0.757
      objectReference: {fileID: 0}
    - target: {fileID: -4216859302048453862, guid: 50c3514176b219e46a307bd2a6644492,
        type: 3}
      propertyPath: m_LocalPosition.z
      value: 0
      objectReference: {fileID: 0}
    - target: {fileID: -4216859302048453862, guid: 50c3514176b219e46a307bd2a6644492,
        type: 3}
      propertyPath: m_LocalRotation.x
      value: -0.2582476
      objectReference: {fileID: 0}
    - target: {fileID: -4216859302048453862, guid: 50c3514176b219e46a307bd2a6644492,
        type: 3}
      propertyPath: m_LocalRotation.y
      value: -0.96589875
      objectReference: {fileID: 0}
    - target: {fileID: -4216859302048453862, guid: 50c3514176b219e46a307bd2a6644492,
        type: 3}
      propertyPath: m_LocalRotation.z
      value: 0.0048171356
      objectReference: {fileID: 0}
    - target: {fileID: -4216859302048453862, guid: 50c3514176b219e46a307bd2a6644492,
        type: 3}
      propertyPath: m_LocalRotation.w
      value: -0.018016858
      objectReference: {fileID: 0}
    - target: {fileID: -4216859302048453862, guid: 50c3514176b219e46a307bd2a6644492,
        type: 3}
      propertyPath: m_RootOrder
      value: 0
      objectReference: {fileID: 0}
    - target: {fileID: -4216859302048453862, guid: 50c3514176b219e46a307bd2a6644492,
        type: 3}
      propertyPath: m_LocalEulerAnglesHint.x
      value: 0
      objectReference: {fileID: 0}
    - target: {fileID: -4216859302048453862, guid: 50c3514176b219e46a307bd2a6644492,
        type: 3}
      propertyPath: m_LocalEulerAnglesHint.y
      value: 0
      objectReference: {fileID: 0}
    - target: {fileID: -4216859302048453862, guid: 50c3514176b219e46a307bd2a6644492,
        type: 3}
      propertyPath: m_LocalEulerAnglesHint.z
      value: 0
      objectReference: {fileID: 0}
    - target: {fileID: -927199367670048503, guid: 50c3514176b219e46a307bd2a6644492,
        type: 3}
      propertyPath: m_Name
      value: Normal_Soldier
      objectReference: {fileID: 0}
    - target: {fileID: 58231100397750710, guid: 50c3514176b219e46a307bd2a6644492,
        type: 3}
      propertyPath: m_Materials.Array.data[0]
      value: 
      objectReference: {fileID: 2100000, guid: eb3df6d4933569e4a86a3c950ca7fac0, type: 2}
    - target: {fileID: 856365191234717131, guid: 50c3514176b219e46a307bd2a6644492,
        type: 3}
      propertyPath: m_Materials.Array.data[0]
      value: 
      objectReference: {fileID: 2100000, guid: 3e34564085ca6ca45842879c61d942a6, type: 2}
    - target: {fileID: 5735737067132635528, guid: 50c3514176b219e46a307bd2a6644492,
        type: 3}
      propertyPath: m_Materials.Array.data[0]
      value: 
      objectReference: {fileID: 2100000, guid: f1252151fefb6c644bcaf2da3cc68389, type: 2}
    m_RemovedComponents: []
  m_SourcePrefab: {fileID: 100100000, guid: 50c3514176b219e46a307bd2a6644492, type: 3}
--- !u!1 &4234936194508403533 stripped
GameObject:
  m_CorrespondingSourceObject: {fileID: -927199367670048503, guid: 50c3514176b219e46a307bd2a6644492,
    type: 3}
  m_PrefabInstance: {fileID: 5324496238875339332}
  m_PrefabAsset: {fileID: 0}
