%YAML 1.1
%TAG !u! tag:unity3d.com,2011:
--- !u!114 &11400000
MonoBehaviour:
  m_ObjectHideFlags: 0
  m_CorrespondingSourceObject: {fileID: 0}
  m_PrefabInstance: {fileID: 0}
  m_PrefabAsset: {fileID: 0}
  m_GameObject: {fileID: 0}
  m_Enabled: 1
  m_EditorHideFlags: 0
  m_Script: {fileID: 11500000, guid: 81997e4ddb0f3c145a1828d06570d2fe, type: 3}
  m_Name: FootstepSound
  m_EditorClassIdentifier: 
  _clips:
  - {fileID: 8300000, guid: 1228f0c386b1d05418c028e4abd21098, type: 3}
  - {fileID: 8300000, guid: a78f1a81a10b4854c992edac1581d14e, type: 3}
  - {fileID: 8300000, guid: 99a27cff1cb0f9644a14b8e4d5d8b174, type: 3}
  - {fileID: 8300000, guid: 0b4e03b4fbd72ec45a6c499b39594bfc, type: 3}
  _randomizeVolume: 1
  _volume: 0
  _minVolume: 1
  _maxVolume: 1.5
  _randomizePitch: 1
  _pitch: 0
  _minPitch: 0.9
  _maxPitch: 1.1
