%YAML 1.1
%TAG !u! tag:unity3d.com,2011:
--- !u!1001 &384276311028853697
PrefabInstance:
  m_ObjectHideFlags: 0
  serializedVersion: 2
  m_Modification:
    m_TransformParent: {fileID: 8488538401046179262}
    m_Modifications:
    - target: {fileID: 5324496238875307254, guid: 9e7d752da98d8ad47a06be06822482c2,
        type: 3}
      propertyPath: m_Name
      value: Normal_Soldier Variant
      objectReference: {fileID: 0}
    - target: {fileID: 5324496238875734230, guid: 9e7d752da98d8ad47a06be06822482c2,
        type: 3}
      propertyPath: m_LocalPosition.x
      value: -0.41964737
      objectReference: {fileID: 0}
    - target: {fileID: 5324496238875734230, guid: 9e7d752da98d8ad47a06be06822482c2,
        type: 3}
      propertyPath: m_LocalPosition.y
      value: -0.7311263
      objectReference: {fileID: 0}
    - target: {fileID: 5324496238875734230, guid: 9e7d752da98d8ad47a06be06822482c2,
        type: 3}
      propertyPath: m_LocalPosition.z
      value: -0.0075392057
      objectReference: {fileID: 0}
    - target: {fileID: 5324496238875734230, guid: 9e7d752da98d8ad47a06be06822482c2,
        type: 3}
      propertyPath: m_LocalRotation.x
      value: -0.2582476
      objectReference: {fileID: 0}
    - target: {fileID: 5324496238875734230, guid: 9e7d752da98d8ad47a06be06822482c2,
        type: 3}
      propertyPath: m_LocalRotation.y
      value: -0.96589875
      objectReference: {fileID: 0}
    - target: {fileID: 5324496238875734230, guid: 9e7d752da98d8ad47a06be06822482c2,
        type: 3}
      propertyPath: m_LocalRotation.z
      value: 0.0048171356
      objectReference: {fileID: 0}
    - target: {fileID: 5324496238875734230, guid: 9e7d752da98d8ad47a06be06822482c2,
        type: 3}
      propertyPath: m_LocalRotation.w
      value: -0.018016858
      objectReference: {fileID: 0}
    - target: {fileID: 5324496238875734230, guid: 9e7d752da98d8ad47a06be06822482c2,
        type: 3}
      propertyPath: m_RootOrder
      value: 2
      objectReference: {fileID: 0}
    - target: {fileID: 5324496238875734230, guid: 9e7d752da98d8ad47a06be06822482c2,
        type: 3}
      propertyPath: m_LocalEulerAnglesHint.x
      value: 0
      objectReference: {fileID: 0}
    - target: {fileID: 5324496238875734230, guid: 9e7d752da98d8ad47a06be06822482c2,
        type: 3}
      propertyPath: m_LocalEulerAnglesHint.y
      value: 0
      objectReference: {fileID: 0}
    - target: {fileID: 5324496238875734230, guid: 9e7d752da98d8ad47a06be06822482c2,
        type: 3}
      propertyPath: m_LocalEulerAnglesHint.z
      value: 0
      objectReference: {fileID: 0}
    - target: {fileID: 5324496238877504036, guid: 9e7d752da98d8ad47a06be06822482c2,
        type: 3}
      propertyPath: m_Materials.Array.data[0]
      value: 
      objectReference: {fileID: 2100000, guid: a92ea5cac78774f4d965cf2934bfaaa4, type: 2}
    - target: {fileID: 5324496238877504038, guid: 9e7d752da98d8ad47a06be06822482c2,
        type: 3}
      propertyPath: m_Materials.Array.data[0]
      value: 
      objectReference: {fileID: 2100000, guid: 3e34564085ca6ca45842879c61d942a6, type: 2}
    - target: {fileID: 5324496238882692900, guid: 9e7d752da98d8ad47a06be06822482c2,
        type: 3}
      propertyPath: m_Controller
      value: 
      objectReference: {fileID: 9100000, guid: 7c0cfc33d7031d7488611f61086ef884, type: 2}
    - target: {fileID: 5324496238882692900, guid: 9e7d752da98d8ad47a06be06822482c2,
        type: 3}
      propertyPath: m_Avatar
      value: 
      objectReference: {fileID: 0}
    - target: {fileID: 5324496238886805988, guid: 9e7d752da98d8ad47a06be06822482c2,
        type: 3}
      propertyPath: m_Materials.Array.data[0]
      value: 
      objectReference: {fileID: 2100000, guid: eb3df6d4933569e4a86a3c950ca7fac0, type: 2}
    m_RemovedComponents: []
  m_SourcePrefab: {fileID: 100100000, guid: 9e7d752da98d8ad47a06be06822482c2, type: 3}
--- !u!1001 &8488538401045788458
PrefabInstance:
  m_ObjectHideFlags: 0
  serializedVersion: 2
  m_Modification:
    m_TransformParent: {fileID: 0}
    m_Modifications:
    - target: {fileID: -6719642887465645510, guid: e51f367c9dadd984b8098859e7852adb,
        type: 3}
      propertyPath: m_Materials.Array.data[0]
      value: 
      objectReference: {fileID: 2100000, guid: 68cf22ee8451fac49a51032de07b5d7e, type: 2}
    - target: {fileID: -4216859302048453862, guid: e51f367c9dadd984b8098859e7852adb,
        type: 3}
      propertyPath: m_LocalPosition.x
      value: 0
      objectReference: {fileID: 0}
    - target: {fileID: -4216859302048453862, guid: e51f367c9dadd984b8098859e7852adb,
        type: 3}
      propertyPath: m_LocalPosition.y
      value: 0
      objectReference: {fileID: 0}
    - target: {fileID: -4216859302048453862, guid: e51f367c9dadd984b8098859e7852adb,
        type: 3}
      propertyPath: m_LocalPosition.z
      value: 0
      objectReference: {fileID: 0}
    - target: {fileID: -4216859302048453862, guid: e51f367c9dadd984b8098859e7852adb,
        type: 3}
      propertyPath: m_LocalRotation.x
      value: -0
      objectReference: {fileID: 0}
    - target: {fileID: -4216859302048453862, guid: e51f367c9dadd984b8098859e7852adb,
        type: 3}
      propertyPath: m_LocalRotation.y
      value: -0
      objectReference: {fileID: 0}
    - target: {fileID: -4216859302048453862, guid: e51f367c9dadd984b8098859e7852adb,
        type: 3}
      propertyPath: m_LocalRotation.z
      value: -0
      objectReference: {fileID: 0}
    - target: {fileID: -4216859302048453862, guid: e51f367c9dadd984b8098859e7852adb,
        type: 3}
      propertyPath: m_LocalRotation.w
      value: 1
      objectReference: {fileID: 0}
    - target: {fileID: -4216859302048453862, guid: e51f367c9dadd984b8098859e7852adb,
        type: 3}
      propertyPath: m_RootOrder
      value: 0
      objectReference: {fileID: 0}
    - target: {fileID: -4216859302048453862, guid: e51f367c9dadd984b8098859e7852adb,
        type: 3}
      propertyPath: m_LocalEulerAnglesHint.x
      value: 0
      objectReference: {fileID: 0}
    - target: {fileID: -4216859302048453862, guid: e51f367c9dadd984b8098859e7852adb,
        type: 3}
      propertyPath: m_LocalEulerAnglesHint.y
      value: 0
      objectReference: {fileID: 0}
    - target: {fileID: -4216859302048453862, guid: e51f367c9dadd984b8098859e7852adb,
        type: 3}
      propertyPath: m_LocalEulerAnglesHint.z
      value: 0
      objectReference: {fileID: 0}
    - target: {fileID: -927199367670048503, guid: e51f367c9dadd984b8098859e7852adb,
        type: 3}
      propertyPath: m_Name
      value: Pants
      objectReference: {fileID: 0}
    - target: {fileID: 100008, guid: e51f367c9dadd984b8098859e7852adb, type: 3}
      propertyPath: m_Name
      value: Pants Variant 1
      objectReference: {fileID: 0}
    - target: {fileID: 9500000, guid: e51f367c9dadd984b8098859e7852adb, type: 3}
      propertyPath: m_Controller
      value: 
      objectReference: {fileID: 9100000, guid: 2360f98f3ec947c428950c3bb5133f6d, type: 2}
    - target: {fileID: 9500000, guid: e51f367c9dadd984b8098859e7852adb, type: 3}
      propertyPath: m_Avatar
      value: 
      objectReference: {fileID: 0}
    - target: {fileID: 13700000, guid: e51f367c9dadd984b8098859e7852adb, type: 3}
      propertyPath: m_Materials.Array.data[0]
      value: 
      objectReference: {fileID: 2100000, guid: 68cf22ee8451fac49a51032de07b5d7e, type: 2}
    m_RemovedComponents: []
  m_SourcePrefab: {fileID: 100100000, guid: e51f367c9dadd984b8098859e7852adb, type: 3}
--- !u!4 &8488538401046179262 stripped
Transform:
  m_CorrespondingSourceObject: {fileID: 400020, guid: e51f367c9dadd984b8098859e7852adb,
    type: 3}
  m_PrefabInstance: {fileID: 8488538401045788458}
  m_PrefabAsset: {fileID: 0}
