%YAML 1.1
%TAG !u! tag:unity3d.com,2011:
--- !u!114 &11400000
MonoBehaviour:
  m_ObjectHideFlags: 0
  m_CorrespondingSourceObject: {fileID: 0}
  m_PrefabInstance: {fileID: 0}
  m_PrefabAsset: {fileID: 0}
  m_GameObject: {fileID: 0}
  m_Enabled: 1
  m_EditorHideFlags: 0
  m_Script: {fileID: 11500000, guid: dcc14c08f6906aa45bf4e457da8bcbf3, type: 3}
  m_Name: EnemybBullet
  m_EditorClassIdentifier: 
  _bulletSpeed: 200
  _damage: 4
  _lifetime: 5
  _targetTag: Ally
